%YAML 1.1
%TAG !u! tag:unity3d.com,2011:
--- !u!29 &1
OcclusionCullingSettings:
  m_ObjectHideFlags: 0
  serializedVersion: 2
  m_OcclusionBakeSettings:
    smallestOccluder: 5
    smallestHole: 0.25
    backfaceThreshold: 100
  m_SceneGUID: 00000000000000000000000000000000
  m_OcclusionCullingData: {fileID: 0}
--- !u!104 &2
RenderSettings:
  m_ObjectHideFlags: 0
  serializedVersion: 9
  m_Fog: 0
  m_FogColor: {r: 0.5, g: 0.5, b: 0.5, a: 1}
  m_FogMode: 3
  m_FogDensity: 0.01
  m_LinearFogStart: 0
  m_LinearFogEnd: 300
  m_AmbientSkyColor: {r: 0.212, g: 0.227, b: 0.259, a: 1}
  m_AmbientEquatorColor: {r: 0.114, g: 0.125, b: 0.133, a: 1}
  m_AmbientGroundColor: {r: 0.047, g: 0.043, b: 0.035, a: 1}
  m_AmbientIntensity: 1
  m_AmbientMode: 3
  m_SubtractiveShadowColor: {r: 0.42, g: 0.478, b: 0.627, a: 1}
  m_SkyboxMaterial: {fileID: 2100000, guid: 2d056ac30ecc9e542b26e06133f23602, type: 2}
  m_HaloStrength: 0.5
  m_FlareStrength: 1
  m_FlareFadeSpeed: 3
  m_HaloTexture: {fileID: 0}
  m_SpotCookie: {fileID: 10001, guid: 0000000000000000e000000000000000, type: 0}
  m_DefaultReflectionMode: 0
  m_DefaultReflectionResolution: 128
  m_ReflectionBounces: 1
  m_ReflectionIntensity: 1
  m_CustomReflection: {fileID: 0}
  m_Sun: {fileID: 0}
  m_IndirectSpecularColor: {r: 0.016090982, g: 0.01466979, b: 0.013826404, a: 1}
  m_UseRadianceAmbientProbe: 0
--- !u!157 &3
LightmapSettings:
  m_ObjectHideFlags: 0
  serializedVersion: 12
  m_GIWorkflowMode: 1
  m_GISettings:
    serializedVersion: 2
    m_BounceScale: 1
    m_IndirectOutputScale: 1
    m_AlbedoBoost: 1
    m_EnvironmentLightingMode: 0
    m_EnableBakedLightmaps: 0
    m_EnableRealtimeLightmaps: 0
  m_LightmapEditorSettings:
    serializedVersion: 12
    m_Resolution: 2
    m_BakeResolution: 40
    m_AtlasSize: 1024
    m_AO: 0
    m_AOMaxDistance: 1
    m_CompAOExponent: 1
    m_CompAOExponentDirect: 0
    m_ExtractAmbientOcclusion: 0
    m_Padding: 2
    m_LightmapParameters: {fileID: 0}
    m_LightmapsBakeMode: 1
    m_TextureCompression: 1
    m_FinalGather: 0
    m_FinalGatherFiltering: 1
    m_FinalGatherRayCount: 256
    m_ReflectionCompression: 2
    m_MixedBakeMode: 2
    m_BakeBackend: 0
    m_PVRSampling: 1
    m_PVRDirectSampleCount: 32
    m_PVRSampleCount: 500
    m_PVRBounces: 2
    m_PVREnvironmentSampleCount: 500
    m_PVREnvironmentReferencePointCount: 2048
    m_PVRFilteringMode: 2
    m_PVRDenoiserTypeDirect: 0
    m_PVRDenoiserTypeIndirect: 0
    m_PVRDenoiserTypeAO: 0
    m_PVRFilterTypeDirect: 0
    m_PVRFilterTypeIndirect: 0
    m_PVRFilterTypeAO: 0
    m_PVREnvironmentMIS: 0
    m_PVRCulling: 1
    m_PVRFilteringGaussRadiusDirect: 1
    m_PVRFilteringGaussRadiusIndirect: 5
    m_PVRFilteringGaussRadiusAO: 2
    m_PVRFilteringAtrousPositionSigmaDirect: 0.5
    m_PVRFilteringAtrousPositionSigmaIndirect: 2
    m_PVRFilteringAtrousPositionSigmaAO: 1
    m_ExportTrainingData: 0
    m_TrainingDataDestination: TrainingData
    m_LightProbeSampleCountMultiplier: 4
  m_LightingDataAsset: {fileID: 0}
  m_LightingSettings: {fileID: 0}
--- !u!196 &4
NavMeshSettings:
  serializedVersion: 2
  m_ObjectHideFlags: 0
  m_BuildSettings:
    serializedVersion: 2
    agentTypeID: 0
    agentRadius: 0.5
    agentHeight: 2
    agentSlope: 45
    agentClimb: 0.4
    ledgeDropHeight: 0
    maxJumpAcrossDistance: 0
    minRegionArea: 2
    manualCellSize: 0
    cellSize: 0.16666667
    manualTileSize: 0
    tileSize: 256
    accuratePlacement: 0
    maxJobWorkers: 0
    preserveTilesOutsideBounds: 0
    debug:
      m_Flags: 0
  m_NavMeshData: {fileID: 0}
--- !u!50 &180873863 stripped
Rigidbody2D:
  m_CorrespondingSourceObject: {fileID: 3143477834156571510, guid: 6e941f8ade7e8b54fa5d2685e182a91e, type: 3}
  m_PrefabInstance: {fileID: 3143477834275124320}
  m_PrefabAsset: {fileID: 0}
--- !u!50 &226417854 stripped
Rigidbody2D:
  m_CorrespondingSourceObject: {fileID: 3143477832971663310, guid: 6e941f8ade7e8b54fa5d2685e182a91e, type: 3}
  m_PrefabInstance: {fileID: 3143477834275124320}
  m_PrefabAsset: {fileID: 0}
--- !u!4 &340325005 stripped
Transform:
  m_CorrespondingSourceObject: {fileID: 3143477833934866157, guid: 6e941f8ade7e8b54fa5d2685e182a91e, type: 3}
  m_PrefabInstance: {fileID: 3143477834275124320}
  m_PrefabAsset: {fileID: 0}
--- !u!1 &361765014
GameObject:
  m_ObjectHideFlags: 0
  m_CorrespondingSourceObject: {fileID: 0}
  m_PrefabInstance: {fileID: 0}
  m_PrefabAsset: {fileID: 0}
  serializedVersion: 6
  m_Component:
  - component: {fileID: 361765016}
  - component: {fileID: 361765015}
  m_Layer: 0
  m_Name: InitialPopulation
  m_TagString: Untagged
  m_Icon: {fileID: 0}
  m_NavMeshLayer: 0
  m_StaticEditorFlags: 0
  m_IsActive: 1
--- !u!114 &361765015
MonoBehaviour:
  m_ObjectHideFlags: 0
  m_CorrespondingSourceObject: {fileID: 0}
  m_PrefabInstance: {fileID: 0}
  m_PrefabAsset: {fileID: 0}
  m_GameObject: {fileID: 361765014}
  m_Enabled: 0
  m_EditorHideFlags: 0
  m_Script: {fileID: 11500000, guid: c888146fe4cf9e34e805874539104359, type: 3}
  m_Name: 
  m_EditorClassIdentifier: 
  car: {fileID: 2014917878}
  endWall: {fileID: 0}
  listOfCars: []
  CurrentPopulationObject: {fileID: 11400000, guid: b0bcf4e05c7324a46a953d109a1525fd, type: 2}
  distances: []
  speed: 7
  population: 10
--- !u!4 &361765016
Transform:
  m_ObjectHideFlags: 0
  m_CorrespondingSourceObject: {fileID: 0}
  m_PrefabInstance: {fileID: 0}
  m_PrefabAsset: {fileID: 0}
  m_GameObject: {fileID: 361765014}
  m_LocalRotation: {x: 0, y: 0, z: 0, w: 1}
  m_LocalPosition: {x: -0.6593733, y: 0.35623625, z: -2.0636592}
  m_LocalScale: {x: 1, y: 1, z: 1}
  m_Children: []
  m_Father: {fileID: 0}
  m_RootOrder: 5
  m_LocalEulerAnglesHint: {x: 0, y: 0, z: 0}
--- !u!1 &519420028
GameObject:
  m_ObjectHideFlags: 0
  m_CorrespondingSourceObject: {fileID: 0}
  m_PrefabInstance: {fileID: 0}
  m_PrefabAsset: {fileID: 0}
  serializedVersion: 6
  m_Component:
  - component: {fileID: 519420032}
  - component: {fileID: 519420031}
  - component: {fileID: 519420029}
  - component: {fileID: 519420030}
  - component: {fileID: 519420033}
  m_Layer: 0
  m_Name: Main Camera
  m_TagString: MainCamera
  m_Icon: {fileID: 0}
  m_NavMeshLayer: 0
  m_StaticEditorFlags: 0
  m_IsActive: 1
--- !u!81 &519420029
AudioListener:
  m_ObjectHideFlags: 0
  m_CorrespondingSourceObject: {fileID: 0}
  m_PrefabInstance: {fileID: 0}
  m_PrefabAsset: {fileID: 0}
  m_GameObject: {fileID: 519420028}
  m_Enabled: 1
--- !u!114 &519420030
MonoBehaviour:
  m_ObjectHideFlags: 0
  m_CorrespondingSourceObject: {fileID: 0}
  m_PrefabInstance: {fileID: 0}
  m_PrefabAsset: {fileID: 0}
  m_GameObject: {fileID: 519420028}
  m_Enabled: 1
  m_EditorHideFlags: 0
  m_Script: {fileID: 11500000, guid: 25b986d154c1e344292d6f2ac2836e1e, type: 3}
  m_Name: 
  m_EditorClassIdentifier: 
  target: {fileID: 340325005}
--- !u!20 &519420031
Camera:
  m_ObjectHideFlags: 0
  m_CorrespondingSourceObject: {fileID: 0}
  m_PrefabInstance: {fileID: 0}
  m_PrefabAsset: {fileID: 0}
  m_GameObject: {fileID: 519420028}
  m_Enabled: 1
  serializedVersion: 2
  m_ClearFlags: 1
  m_BackGroundColor: {r: 0, g: 0, b: 0, a: 0}
  m_projectionMatrixMode: 1
  m_GateFitMode: 2
  m_FOVAxisMode: 1
  m_SensorSize: {x: 36, y: 24}
  m_LensShift: {x: 0, y: 0}
  m_FocalLength: 50
  m_NormalizedViewPortRect:
    serializedVersion: 2
    x: 0
    y: 0
    width: 1
    height: 1
  near clip plane: 0.3
  far clip plane: 1000
  field of view: 96.534645
  orthographic: 0
  orthographic size: 6.7950506
  m_Depth: -1
  m_CullingMask:
    serializedVersion: 2
    m_Bits: 4294967295
  m_RenderingPath: -1
  m_TargetTexture: {fileID: 0}
  m_TargetDisplay: 0
  m_TargetEye: 0
  m_HDR: 1
  m_AllowMSAA: 0
  m_AllowDynamicResolution: 0
  m_ForceIntoRT: 0
  m_OcclusionCulling: 0
  m_StereoConvergence: 10
  m_StereoSeparation: 0.022
--- !u!4 &519420032
Transform:
  m_ObjectHideFlags: 0
  m_CorrespondingSourceObject: {fileID: 0}
  m_PrefabInstance: {fileID: 0}
  m_PrefabAsset: {fileID: 0}
  m_GameObject: {fileID: 519420028}
  m_LocalRotation: {x: 0, y: 0, z: 0, w: 1}
  m_LocalPosition: {x: 9.5, y: -2, z: -10}
  m_LocalScale: {x: 1, y: 1, z: 1}
  m_Children: []
  m_Father: {fileID: 0}
  m_RootOrder: 0
  m_LocalEulerAnglesHint: {x: 0, y: 0, z: 0}
--- !u!114 &519420033
MonoBehaviour:
  m_ObjectHideFlags: 0
  m_CorrespondingSourceObject: {fileID: 0}
  m_PrefabInstance: {fileID: 0}
  m_PrefabAsset: {fileID: 0}
  m_GameObject: {fileID: 519420028}
  m_Enabled: 1
  m_EditorHideFlags: 0
  m_Script: {fileID: 11500000, guid: 291611d40899db44192abe09a9b2a934, type: 3}
  m_Name: 
  m_EditorClassIdentifier: 
  CurrentPopulationObject: {fileID: 11400000, guid: b0bcf4e05c7324a46a953d109a1525fd, type: 2}
  initialPopulation: {fileID: 361765014}
--- !u!1001 &1369858139
PrefabInstance:
  m_ObjectHideFlags: 0
  serializedVersion: 2
  m_Modification:
    m_TransformParent: {fileID: 0}
    m_Modifications:
    - target: {fileID: 3428120366433277667, guid: 31632057324295c4d91d4d6352c3fc6d, type: 3}
      propertyPath: m_RootOrder
      value: 7
      objectReference: {fileID: 0}
    - target: {fileID: 3428120366433277667, guid: 31632057324295c4d91d4d6352c3fc6d, type: 3}
      propertyPath: m_LocalPosition.x
      value: -3.3028
      objectReference: {fileID: 0}
    - target: {fileID: 3428120366433277667, guid: 31632057324295c4d91d4d6352c3fc6d, type: 3}
      propertyPath: m_LocalPosition.y
      value: 0.6713
      objectReference: {fileID: 0}
    - target: {fileID: 3428120366433277667, guid: 31632057324295c4d91d4d6352c3fc6d, type: 3}
      propertyPath: m_LocalPosition.z
      value: 0
      objectReference: {fileID: 0}
    - target: {fileID: 3428120366433277667, guid: 31632057324295c4d91d4d6352c3fc6d, type: 3}
      propertyPath: m_LocalRotation.w
      value: 1
      objectReference: {fileID: 0}
    - target: {fileID: 3428120366433277667, guid: 31632057324295c4d91d4d6352c3fc6d, type: 3}
      propertyPath: m_LocalRotation.x
      value: 0
      objectReference: {fileID: 0}
    - target: {fileID: 3428120366433277667, guid: 31632057324295c4d91d4d6352c3fc6d, type: 3}
      propertyPath: m_LocalRotation.y
      value: 0
      objectReference: {fileID: 0}
    - target: {fileID: 3428120366433277667, guid: 31632057324295c4d91d4d6352c3fc6d, type: 3}
      propertyPath: m_LocalRotation.z
      value: 0
      objectReference: {fileID: 0}
    - target: {fileID: 3428120366433277667, guid: 31632057324295c4d91d4d6352c3fc6d, type: 3}
      propertyPath: m_LocalEulerAnglesHint.x
      value: 0
      objectReference: {fileID: 0}
    - target: {fileID: 3428120366433277667, guid: 31632057324295c4d91d4d6352c3fc6d, type: 3}
      propertyPath: m_LocalEulerAnglesHint.y
      value: 0
      objectReference: {fileID: 0}
    - target: {fileID: 3428120366433277667, guid: 31632057324295c4d91d4d6352c3fc6d, type: 3}
      propertyPath: m_LocalEulerAnglesHint.z
      value: 0
      objectReference: {fileID: 0}
    - target: {fileID: 3428120366433277670, guid: 31632057324295c4d91d4d6352c3fc6d, type: 3}
      propertyPath: m_Name
      value: startWall
      objectReference: {fileID: 0}
    m_RemovedComponents: []
  m_SourcePrefab: {fileID: 100100000, guid: 31632057324295c4d91d4d6352c3fc6d, type: 3}
--- !u!1 &2014917878 stripped
GameObject:
  m_CorrespondingSourceObject: {fileID: 3143477833934866156, guid: 6e941f8ade7e8b54fa5d2685e182a91e, type: 3}
  m_PrefabInstance: {fileID: 3143477834275124320}
  m_PrefabAsset: {fileID: 0}
--- !u!114 &2014917880
MonoBehaviour:
  m_ObjectHideFlags: 0
  m_CorrespondingSourceObject: {fileID: 0}
  m_PrefabInstance: {fileID: 0}
  m_PrefabAsset: {fileID: 0}
  m_GameObject: {fileID: 2014917878}
  m_Enabled: 0
  m_EditorHideFlags: 0
  m_Script: {fileID: 11500000, guid: 0c30e54e5d6947345b3b1a29a4073c5a, type: 3}
  m_Name: 
  m_EditorClassIdentifier: 
  backTire: {fileID: 226417854}
  frontTire: {fileID: 180873863}
  torque: 2
  turn: -0.5
--- !u!1001 &2116860949
PrefabInstance:
  m_ObjectHideFlags: 0
  serializedVersion: 2
  m_Modification:
    m_TransformParent: {fileID: 0}
    m_Modifications:
    - target: {fileID: 6112505054767636177, guid: 327569f3c21415c45bfaf8c50403a45a, type: 3}
      propertyPath: m_Name
      value: endWall
      objectReference: {fileID: 0}
    - target: {fileID: 6112505054767636180, guid: 327569f3c21415c45bfaf8c50403a45a, type: 3}
      propertyPath: m_RootOrder
      value: 6
      objectReference: {fileID: 0}
    - target: {fileID: 6112505054767636180, guid: 327569f3c21415c45bfaf8c50403a45a, type: 3}
      propertyPath: m_LocalPosition.x
      value: 22
      objectReference: {fileID: 0}
    - target: {fileID: 6112505054767636180, guid: 327569f3c21415c45bfaf8c50403a45a, type: 3}
      propertyPath: m_LocalPosition.y
      value: 0.0498
      objectReference: {fileID: 0}
    - target: {fileID: 6112505054767636180, guid: 327569f3c21415c45bfaf8c50403a45a, type: 3}
      propertyPath: m_LocalPosition.z
      value: 0
      objectReference: {fileID: 0}
    - target: {fileID: 6112505054767636180, guid: 327569f3c21415c45bfaf8c50403a45a, type: 3}
      propertyPath: m_LocalRotation.w
      value: 1
      objectReference: {fileID: 0}
    - target: {fileID: 6112505054767636180, guid: 327569f3c21415c45bfaf8c50403a45a, type: 3}
      propertyPath: m_LocalRotation.x
      value: 0
      objectReference: {fileID: 0}
    - target: {fileID: 6112505054767636180, guid: 327569f3c21415c45bfaf8c50403a45a, type: 3}
      propertyPath: m_LocalRotation.y
      value: 0
      objectReference: {fileID: 0}
    - target: {fileID: 6112505054767636180, guid: 327569f3c21415c45bfaf8c50403a45a, type: 3}
      propertyPath: m_LocalRotation.z
      value: 0
      objectReference: {fileID: 0}
    - target: {fileID: 6112505054767636180, guid: 327569f3c21415c45bfaf8c50403a45a, type: 3}
      propertyPath: m_LocalEulerAnglesHint.x
      value: 0
      objectReference: {fileID: 0}
    - target: {fileID: 6112505054767636180, guid: 327569f3c21415c45bfaf8c50403a45a, type: 3}
      propertyPath: m_LocalEulerAnglesHint.y
      value: 0
      objectReference: {fileID: 0}
    - target: {fileID: 6112505054767636180, guid: 327569f3c21415c45bfaf8c50403a45a, type: 3}
      propertyPath: m_LocalEulerAnglesHint.z
      value: 0
      objectReference: {fileID: 0}
    m_RemovedComponents: []
  m_SourcePrefab: {fileID: 100100000, guid: 327569f3c21415c45bfaf8c50403a45a, type: 3}
--- !u!1 &2142524760
GameObject:
  m_ObjectHideFlags: 0
  m_CorrespondingSourceObject: {fileID: 0}
  m_PrefabInstance: {fileID: 0}
  m_PrefabAsset: {fileID: 0}
  serializedVersion: 6
  m_Component:
  - component: {fileID: 2142524763}
  - component: {fileID: 2142524762}
  - component: {fileID: 2142524761}
  m_Layer: 0
  m_Name: EventSystem
  m_TagString: Untagged
  m_Icon: {fileID: 0}
  m_NavMeshLayer: 0
  m_StaticEditorFlags: 0
  m_IsActive: 1
--- !u!114 &2142524761
MonoBehaviour:
  m_ObjectHideFlags: 0
  m_CorrespondingSourceObject: {fileID: 0}
  m_PrefabInstance: {fileID: 0}
  m_PrefabAsset: {fileID: 0}
  m_GameObject: {fileID: 2142524760}
  m_Enabled: 1
  m_EditorHideFlags: 0
  m_Script: {fileID: 11500000, guid: 4f231c4fb786f3946a6b90b886c48677, type: 3}
  m_Name: 
  m_EditorClassIdentifier: 
  m_HorizontalAxis: Horizontal
  m_VerticalAxis: Vertical
  m_SubmitButton: Submit
  m_CancelButton: Cancel
  m_InputActionsPerSecond: 10
  m_RepeatDelay: 0.5
  m_ForceModuleActive: 0
--- !u!114 &2142524762
MonoBehaviour:
  m_ObjectHideFlags: 0
  m_CorrespondingSourceObject: {fileID: 0}
  m_PrefabInstance: {fileID: 0}
  m_PrefabAsset: {fileID: 0}
  m_GameObject: {fileID: 2142524760}
  m_Enabled: 1
  m_EditorHideFlags: 0
  m_Script: {fileID: 11500000, guid: 76c392e42b5098c458856cdf6ecaaaa1, type: 3}
  m_Name: 
  m_EditorClassIdentifier: 
  m_FirstSelected: {fileID: 0}
  m_sendNavigationEvents: 1
  m_DragThreshold: 10
--- !u!4 &2142524763
Transform:
  m_ObjectHideFlags: 0
  m_CorrespondingSourceObject: {fileID: 0}
  m_PrefabInstance: {fileID: 0}
  m_PrefabAsset: {fileID: 0}
  m_GameObject: {fileID: 2142524760}
  m_LocalRotation: {x: 0, y: 0, z: 0, w: 1}
  m_LocalPosition: {x: 0, y: 0, z: 0}
  m_LocalScale: {x: 1, y: 1, z: 1}
  m_Children: []
  m_Father: {fileID: 0}
  m_RootOrder: 3
  m_LocalEulerAnglesHint: {x: 0, y: 0, z: 0}
--- !u!1001 &1161351077733319329
PrefabInstance:
  m_ObjectHideFlags: 0
  serializedVersion: 2
  m_Modification:
    m_TransformParent: {fileID: 0}
    m_Modifications:
    - target: {fileID: 4923650765097733448, guid: 1c2a3d3aa8b883348b294100dddadd1d, type: 3}
      propertyPath: m_Name
      value: harder-terrain
      objectReference: {fileID: 0}
    - target: {fileID: 4923650765097733448, guid: 1c2a3d3aa8b883348b294100dddadd1d, type: 3}
      propertyPath: m_IsActive
      value: 0
      objectReference: {fileID: 0}
    - target: {fileID: 4923650765097733460, guid: 1c2a3d3aa8b883348b294100dddadd1d, type: 3}
      propertyPath: m_RootOrder
      value: 8
      objectReference: {fileID: 0}
    - target: {fileID: 4923650765097733460, guid: 1c2a3d3aa8b883348b294100dddadd1d, type: 3}
      propertyPath: m_LocalPosition.x
      value: 22.58
      objectReference: {fileID: 0}
    - target: {fileID: 4923650765097733460, guid: 1c2a3d3aa8b883348b294100dddadd1d, type: 3}
      propertyPath: m_LocalPosition.y
      value: -3.31
      objectReference: {fileID: 0}
    - target: {fileID: 4923650765097733460, guid: 1c2a3d3aa8b883348b294100dddadd1d, type: 3}
      propertyPath: m_LocalPosition.z
      value: 0
      objectReference: {fileID: 0}
    - target: {fileID: 4923650765097733460, guid: 1c2a3d3aa8b883348b294100dddadd1d, type: 3}
      propertyPath: m_LocalRotation.w
      value: 1
      objectReference: {fileID: 0}
    - target: {fileID: 4923650765097733460, guid: 1c2a3d3aa8b883348b294100dddadd1d, type: 3}
      propertyPath: m_LocalRotation.x
      value: 0
      objectReference: {fileID: 0}
    - target: {fileID: 4923650765097733460, guid: 1c2a3d3aa8b883348b294100dddadd1d, type: 3}
      propertyPath: m_LocalRotation.y
      value: 0
      objectReference: {fileID: 0}
    - target: {fileID: 4923650765097733460, guid: 1c2a3d3aa8b883348b294100dddadd1d, type: 3}
      propertyPath: m_LocalRotation.z
      value: 0
      objectReference: {fileID: 0}
    - target: {fileID: 4923650765097733460, guid: 1c2a3d3aa8b883348b294100dddadd1d, type: 3}
      propertyPath: m_LocalEulerAnglesHint.x
      value: 0
      objectReference: {fileID: 0}
    - target: {fileID: 4923650765097733460, guid: 1c2a3d3aa8b883348b294100dddadd1d, type: 3}
      propertyPath: m_LocalEulerAnglesHint.y
      value: 0
      objectReference: {fileID: 0}
    - target: {fileID: 4923650765097733460, guid: 1c2a3d3aa8b883348b294100dddadd1d, type: 3}
      propertyPath: m_LocalEulerAnglesHint.z
      value: 0
      objectReference: {fileID: 0}
    m_RemovedComponents: []
  m_SourcePrefab: {fileID: 100100000, guid: 1c2a3d3aa8b883348b294100dddadd1d, type: 3}
--- !u!1001 &3143477834275124320
PrefabInstance:
  m_ObjectHideFlags: 0
  serializedVersion: 2
  m_Modification:
    m_TransformParent: {fileID: 0}
    m_Modifications:
    - target: {fileID: 3143477832490881069, guid: 6e941f8ade7e8b54fa5d2685e182a91e, type: 3}
      propertyPath: m_Layer
      value: 6
      objectReference: {fileID: 0}
    - target: {fileID: 3143477832971663305, guid: 6e941f8ade7e8b54fa5d2685e182a91e, type: 3}
      propertyPath: m_Layer
      value: 6
      objectReference: {fileID: 0}
    - target: {fileID: 3143477832971663309, guid: 6e941f8ade7e8b54fa5d2685e182a91e, type: 3}
      propertyPath: m_AutoConfigureConnectedAnchor
      value: 1
      objectReference: {fileID: 0}
    - target: {fileID: 3143477833934866156, guid: 6e941f8ade7e8b54fa5d2685e182a91e, type: 3}
      propertyPath: m_Name
      value: car
      objectReference: {fileID: 0}
    - target: {fileID: 3143477833934866156, guid: 6e941f8ade7e8b54fa5d2685e182a91e, type: 3}
      propertyPath: m_Layer
      value: 6
      objectReference: {fileID: 0}
    - target: {fileID: 3143477833934866157, guid: 6e941f8ade7e8b54fa5d2685e182a91e, type: 3}
      propertyPath: m_RootOrder
      value: 2
      objectReference: {fileID: 0}
    - target: {fileID: 3143477833934866157, guid: 6e941f8ade7e8b54fa5d2685e182a91e, type: 3}
      propertyPath: m_LocalPosition.x
      value: 0
      objectReference: {fileID: 0}
    - target: {fileID: 3143477833934866157, guid: 6e941f8ade7e8b54fa5d2685e182a91e, type: 3}
      propertyPath: m_LocalPosition.y
      value: 0
      objectReference: {fileID: 0}
    - target: {fileID: 3143477833934866157, guid: 6e941f8ade7e8b54fa5d2685e182a91e, type: 3}
      propertyPath: m_LocalPosition.z
      value: 0
      objectReference: {fileID: 0}
    - target: {fileID: 3143477833934866157, guid: 6e941f8ade7e8b54fa5d2685e182a91e, type: 3}
      propertyPath: m_LocalRotation.w
      value: 1
      objectReference: {fileID: 0}
    - target: {fileID: 3143477833934866157, guid: 6e941f8ade7e8b54fa5d2685e182a91e, type: 3}
      propertyPath: m_LocalRotation.x
      value: 0
      objectReference: {fileID: 0}
    - target: {fileID: 3143477833934866157, guid: 6e941f8ade7e8b54fa5d2685e182a91e, type: 3}
      propertyPath: m_LocalRotation.y
      value: 0
      objectReference: {fileID: 0}
    - target: {fileID: 3143477833934866157, guid: 6e941f8ade7e8b54fa5d2685e182a91e, type: 3}
      propertyPath: m_LocalRotation.z
      value: 0
      objectReference: {fileID: 0}
    - target: {fileID: 3143477833934866157, guid: 6e941f8ade7e8b54fa5d2685e182a91e, type: 3}
      propertyPath: m_LocalEulerAnglesHint.x
      value: 0
      objectReference: {fileID: 0}
    - target: {fileID: 3143477833934866157, guid: 6e941f8ade7e8b54fa5d2685e182a91e, type: 3}
      propertyPath: m_LocalEulerAnglesHint.y
      value: 0
      objectReference: {fileID: 0}
    - target: {fileID: 3143477833934866157, guid: 6e941f8ade7e8b54fa5d2685e182a91e, type: 3}
      propertyPath: m_LocalEulerAnglesHint.z
      value: 0
      objectReference: {fileID: 0}
    - target: {fileID: 3143477833934866159, guid: 6e941f8ade7e8b54fa5d2685e182a91e, type: 3}
      propertyPath: m_Enabled
      value: 1
      objectReference: {fileID: 0}
    - target: {fileID: 3143477833934866161, guid: 6e941f8ade7e8b54fa5d2685e182a91e, type: 3}
      propertyPath: m_Enabled
      value: 0
      objectReference: {fileID: 0}
    - target: {fileID: 3143477834156571505, guid: 6e941f8ade7e8b54fa5d2685e182a91e, type: 3}
      propertyPath: m_Layer
      value: 6
      objectReference: {fileID: 0}
    m_RemovedComponents:
    - {fileID: 0}
    - {fileID: 3143477833934866161, guid: 6e941f8ade7e8b54fa5d2685e182a91e, type: 3}
    - {fileID: 3143477833934866159, guid: 6e941f8ade7e8b54fa5d2685e182a91e, type: 3}
  m_SourcePrefab: {fileID: 100100000, guid: 6e941f8ade7e8b54fa5d2685e182a91e, type: 3}
--- !u!1001 &4981669307479211956
PrefabInstance:
  m_ObjectHideFlags: 0
  serializedVersion: 2
  m_Modification:
    m_TransformParent: {fileID: 0}
    m_Modifications:
    - target: {fileID: 4981669306108598805, guid: 4e7f5c80f3741064db1432f935f8afc2, type: 3}
      propertyPath: m_Camera
      value: 
      objectReference: {fileID: 519420031}
    - target: {fileID: 4981669306108598806, guid: 4e7f5c80f3741064db1432f935f8afc2, type: 3}
      propertyPath: m_Pivot.x
      value: 0
      objectReference: {fileID: 0}
    - target: {fileID: 4981669306108598806, guid: 4e7f5c80f3741064db1432f935f8afc2, type: 3}
      propertyPath: m_Pivot.y
      value: 0
      objectReference: {fileID: 0}
    - target: {fileID: 4981669306108598806, guid: 4e7f5c80f3741064db1432f935f8afc2, type: 3}
      propertyPath: m_RootOrder
      value: 1
      objectReference: {fileID: 0}
    - target: {fileID: 4981669306108598806, guid: 4e7f5c80f3741064db1432f935f8afc2, type: 3}
      propertyPath: m_AnchorMax.x
      value: 0
      objectReference: {fileID: 0}
    - target: {fileID: 4981669306108598806, guid: 4e7f5c80f3741064db1432f935f8afc2, type: 3}
      propertyPath: m_AnchorMax.y
      value: 0
      objectReference: {fileID: 0}
    - target: {fileID: 4981669306108598806, guid: 4e7f5c80f3741064db1432f935f8afc2, type: 3}
      propertyPath: m_AnchorMin.x
      value: 0
      objectReference: {fileID: 0}
    - target: {fileID: 4981669306108598806, guid: 4e7f5c80f3741064db1432f935f8afc2, type: 3}
      propertyPath: m_AnchorMin.y
      value: 0
      objectReference: {fileID: 0}
    - target: {fileID: 4981669306108598806, guid: 4e7f5c80f3741064db1432f935f8afc2, type: 3}
      propertyPath: m_SizeDelta.x
      value: 0
      objectReference: {fileID: 0}
    - target: {fileID: 4981669306108598806, guid: 4e7f5c80f3741064db1432f935f8afc2, type: 3}
      propertyPath: m_SizeDelta.y
      value: 0
      objectReference: {fileID: 0}
    - target: {fileID: 4981669306108598806, guid: 4e7f5c80f3741064db1432f935f8afc2, type: 3}
      propertyPath: m_LocalPosition.x
      value: 0
      objectReference: {fileID: 0}
    - target: {fileID: 4981669306108598806, guid: 4e7f5c80f3741064db1432f935f8afc2, type: 3}
      propertyPath: m_LocalPosition.y
      value: 0
      objectReference: {fileID: 0}
    - target: {fileID: 4981669306108598806, guid: 4e7f5c80f3741064db1432f935f8afc2, type: 3}
      propertyPath: m_LocalPosition.z
      value: 0
      objectReference: {fileID: 0}
    - target: {fileID: 4981669306108598806, guid: 4e7f5c80f3741064db1432f935f8afc2, type: 3}
      propertyPath: m_LocalRotation.w
      value: 1
      objectReference: {fileID: 0}
    - target: {fileID: 4981669306108598806, guid: 4e7f5c80f3741064db1432f935f8afc2, type: 3}
      propertyPath: m_LocalRotation.x
      value: 0
      objectReference: {fileID: 0}
    - target: {fileID: 4981669306108598806, guid: 4e7f5c80f3741064db1432f935f8afc2, type: 3}
      propertyPath: m_LocalRotation.y
      value: 0
      objectReference: {fileID: 0}
    - target: {fileID: 4981669306108598806, guid: 4e7f5c80f3741064db1432f935f8afc2, type: 3}
      propertyPath: m_LocalRotation.z
      value: 0
      objectReference: {fileID: 0}
    - target: {fileID: 4981669306108598806, guid: 4e7f5c80f3741064db1432f935f8afc2, type: 3}
      propertyPath: m_AnchoredPosition.x
      value: 0
      objectReference: {fileID: 0}
    - target: {fileID: 4981669306108598806, guid: 4e7f5c80f3741064db1432f935f8afc2, type: 3}
      propertyPath: m_AnchoredPosition.y
      value: 0
      objectReference: {fileID: 0}
    - target: {fileID: 4981669306108598806, guid: 4e7f5c80f3741064db1432f935f8afc2, type: 3}
      propertyPath: m_LocalEulerAnglesHint.x
      value: 0
      objectReference: {fileID: 0}
    - target: {fileID: 4981669306108598806, guid: 4e7f5c80f3741064db1432f935f8afc2, type: 3}
      propertyPath: m_LocalEulerAnglesHint.y
      value: 0
      objectReference: {fileID: 0}
    - target: {fileID: 4981669306108598806, guid: 4e7f5c80f3741064db1432f935f8afc2, type: 3}
      propertyPath: m_LocalEulerAnglesHint.z
      value: 0
      objectReference: {fileID: 0}
    - target: {fileID: 4981669306108598826, guid: 4e7f5c80f3741064db1432f935f8afc2, type: 3}
      propertyPath: m_Name
      value: Canvas
      objectReference: {fileID: 0}
    m_RemovedComponents: []
  m_SourcePrefab: {fileID: 100100000, guid: 4e7f5c80f3741064db1432f935f8afc2, type: 3}
--- !u!1001 &6073562516678621285
PrefabInstance:
  m_ObjectHideFlags: 0
  serializedVersion: 2
  m_Modification:
    m_TransformParent: {fileID: 0}
    m_Modifications:
    - target: {fileID: 6073562518187124811, guid: bac7cb8617e832d4983704b11811a657, type: 3}
      propertyPath: m_Name
      value: terrain
      objectReference: {fileID: 0}
    - target: {fileID: 6073562518187124811, guid: bac7cb8617e832d4983704b11811a657, type: 3}
      propertyPath: m_IsActive
      value: 1
      objectReference: {fileID: 0}
    - target: {fileID: 6073562518187124823, guid: bac7cb8617e832d4983704b11811a657, type: 3}
      propertyPath: m_RootOrder
      value: 4
      objectReference: {fileID: 0}
    - target: {fileID: 6073562518187124823, guid: bac7cb8617e832d4983704b11811a657, type: 3}
      propertyPath: m_LocalPosition.x
      value: 22.58
      objectReference: {fileID: 0}
    - target: {fileID: 6073562518187124823, guid: bac7cb8617e832d4983704b11811a657, type: 3}
      propertyPath: m_LocalPosition.y
      value: -3.31
      objectReference: {fileID: 0}
    - target: {fileID: 6073562518187124823, guid: bac7cb8617e832d4983704b11811a657, type: 3}
      propertyPath: m_LocalPosition.z
      value: 0
      objectReference: {fileID: 0}
    - target: {fileID: 6073562518187124823, guid: bac7cb8617e832d4983704b11811a657, type: 3}
      propertyPath: m_LocalRotation.w
      value: 1
      objectReference: {fileID: 0}
    - target: {fileID: 6073562518187124823, guid: bac7cb8617e832d4983704b11811a657, type: 3}
      propertyPath: m_LocalRotation.x
      value: 0
      objectReference: {fileID: 0}
    - target: {fileID: 6073562518187124823, guid: bac7cb8617e832d4983704b11811a657, type: 3}
      propertyPath: m_LocalRotation.y
      value: 0
      objectReference: {fileID: 0}
    - target: {fileID: 6073562518187124823, guid: bac7cb8617e832d4983704b11811a657, type: 3}
      propertyPath: m_LocalRotation.z
      value: 0
      objectReference: {fileID: 0}
    - target: {fileID: 6073562518187124823, guid: bac7cb8617e832d4983704b11811a657, type: 3}
      propertyPath: m_LocalEulerAnglesHint.x
      value: 0
      objectReference: {fileID: 0}
    - target: {fileID: 6073562518187124823, guid: bac7cb8617e832d4983704b11811a657, type: 3}
      propertyPath: m_LocalEulerAnglesHint.y
      value: 0
      objectReference: {fileID: 0}
    - target: {fileID: 6073562518187124823, guid: bac7cb8617e832d4983704b11811a657, type: 3}
      propertyPath: m_LocalEulerAnglesHint.z
      value: 0
      objectReference: {fileID: 0}
    m_RemovedComponents: []
  m_SourcePrefab: {fileID: 100100000, guid: bac7cb8617e832d4983704b11811a657, type: 3}
